Chapitre 1 Manipulation de graphes avec igraph | Graph Mining
…
En étudiant les différents critères d’importance des nœuds, identifier les nœuds importants et interpréter.

deg <- degree(karate)
prox <- closeness(karate)
inter <- betweenness(karate)
df.deg <- tibble(deg=deg,prox=prox,inter=inter)
deg.rank <- tibble(deg=order(deg,decreasing = TRUE),
                   prox=order(prox,decreasing = TRUE),
                   inter=order(inter,decreasing = TRUE))
deg.rank
# A tibble: 34 × 3
     deg  prox inter
   <int> <int> <int>
 1    34     1     1
 2     1    34    34
 3    33    20    20
 4     3    32    32
 5     2    13    33
 6     4    21     3
 7    32    29    25
 8     9     2     2
 9    14    33    18
10    24     9     6
# … with 24 more rows
…
